<?xml version="1.0" encoding="utf-8"?>
<!-- Generator: Adobe Illustrator 24.3.0, SVG Export Plug-In . SVG Version: 6.00 Build 0)  -->
<!DOCTYPE svg PUBLIC "-//W3C//DTD SVG 1.1//EN" "http://www.w3.org/Graphics/SVG/1.1/DTD/svg11.dtd" [
	<!ENTITY ns_extend "http://ns.adobe.com/Extensibility/1.0/">
	<!ENTITY ns_ai "http://ns.adobe.com/AdobeIllustrator/10.0/">
	<!ENTITY ns_graphs "http://ns.adobe.com/Graphs/1.0/">
	<!ENTITY ns_vars "http://ns.adobe.com/Variables/1.0/">
	<!ENTITY ns_imrep "http://ns.adobe.com/ImageReplacement/1.0/">
	<!ENTITY ns_sfw "http://ns.adobe.com/SaveForWeb/1.0/">
	<!ENTITY ns_custom "http://ns.adobe.com/GenericCustomNamespace/1.0/">
	<!ENTITY ns_adobe_xpath "http://ns.adobe.com/XPath/1.0/">
]>
<svg version="1.1" id="Layer_1" xmlns:x="&ns_extend;" xmlns:i="&ns_ai;" xmlns:graph="&ns_graphs;"
	 xmlns="http://www.w3.org/2000/svg" xmlns:xlink="http://www.w3.org/1999/xlink" x="0px" y="0px" viewBox="0 0 25 25"
	 style="enable-background:new 0 0 25 25;" xml:space="preserve">
<style type="text/css">
	.Drop_x0020_Shadow{fill:none;}
	.Outer_x0020_Glow_x0020_5_x0020_pt{fill:none;}
	.Blue_x0020_Neon{fill:none;stroke:#8AACDA;stroke-width:7;stroke-linecap:round;stroke-linejoin:round;}
	.Chrome_x0020_Highlight{fill:url(#SVGID_1_);stroke:#FFFFFF;stroke-width:0.3629;stroke-miterlimit:1;}
	.Jive_GS{fill:#FFDD00;}
	.Alyssa_GS{fill:#A6D0E4;}
	.st0{fill:none;}
	.st1{fill:#00BDAE;}
</style>
<metadata>
	<sfw  xmlns="&ns_sfw;">
		<slices></slices>
		<sliceSourceBounds  bottomLeftOrigin="true" height="147.2" width="139.5" x="0.5" y="-24.2"></sliceSourceBounds>
	</sfw>
</metadata>
<linearGradient id="SVGID_1_" gradientUnits="userSpaceOnUse" x1="0" y1="0" x2="6.123234e-17" y2="-1">
	<stop  offset="0" style="stop-color:#656565"/>
	<stop  offset="0.618" style="stop-color:#1B1B1B"/>
	<stop  offset="0.6292" style="stop-color:#545454"/>
	<stop  offset="0.9831" style="stop-color:#3E3E3E"/>
</linearGradient>
<path class="st0" d="M140-123"/>
<g>
	<g>
		<g>
			<path d="M22.4,10.9c-0.4-0.3-0.8-0.6-0.9-0.8c-0.1-0.2,0.2-0.8,0.3-1.2c0.3-0.7,0.6-1.5,0.3-2.1c-0.4-0.6-1.2-0.7-2-0.8
				c-0.5-0.1-1-0.1-1.2-0.3c-0.2-0.2-0.2-0.7-0.3-1.2c-0.1-0.8-0.2-1.6-0.8-2c-0.5-0.3-1.4,0-2.1,0.3C15.4,3,15,3.2,14.7,3.2
				c-0.2-0.1-0.5-0.5-0.8-0.9c-0.5-0.6-1-1.3-1.7-1.3c-0.7,0-1.3,0.7-1.7,1.3c-0.3,0.4-0.6,0.8-0.9,0.9C9.2,3.2,8.8,3,8.4,2.8
				C7.7,2.5,6.9,2.2,6.3,2.6c-0.6,0.4-0.7,1.2-0.8,2c0,0.5-0.1,1-0.3,1.2C5.1,5.9,4.5,5.9,4,6c-0.8,0.1-1.6,0.2-2,0.8
				C1.7,7.4,2,8.2,2.4,8.9c0.2,0.4,0.4,0.9,0.3,1.2c-0.1,0.2-0.5,0.5-0.9,0.8c-0.6,0.5-1.3,1-1.3,1.7c0,0.7,0.7,1.3,1.3,1.7
				c0.4,0.3,0.8,0.6,0.9,0.8c0.1,0.2-0.2,0.8-0.3,1.2C2,17,1.7,17.8,2.1,18.4c0.4,0.6,1.2,0.7,2,0.8c0.5,0.1,1,0.1,1.2,0.3
				c0.2,0.2,0.2,0.7,0.3,1.2c0.1,0.8,0.2,1.6,0.8,2c0.5,0.3,1.4,0,2.1-0.3C8.8,22.2,9.2,22,9.6,22c0.2,0.1,0.5,0.5,0.8,0.9
				c0.5,0.6,1,1.3,1.7,1.3c0.7,0,1.3-0.7,1.7-1.3c0.3-0.4,0.6-0.8,0.9-0.9c0.3,0,0.7,0.2,1.1,0.4c0.7,0.3,1.5,0.6,2.1,0.3
				c0.6-0.4,0.7-1.2,0.8-2c0-0.5,0.1-1,0.3-1.2c0.2-0.2,0.7-0.2,1.2-0.3c0.8-0.1,1.6-0.2,2-0.8c0.4-0.6,0-1.4-0.3-2.1
				c-0.2-0.4-0.4-0.9-0.3-1.2c0.1-0.2,0.5-0.5,0.9-0.8c0.6-0.5,1.3-1,1.3-1.7C23.7,11.9,23,11.3,22.4,10.9z M21.8,13.5
				c-0.5,0.4-1.1,0.8-1.2,1.4c-0.2,0.6,0.1,1.2,0.4,1.8c0.2,0.4,0.4,1,0.3,1.2c-0.1,0.2-0.8,0.3-1.2,0.3c-0.7,0.1-1.4,0.2-1.8,0.6
				c-0.4,0.4-0.5,1.1-0.6,1.8c0,0.4-0.1,1.1-0.3,1.2c0,0-0.1,0-0.1,0c-0.3,0-0.7-0.2-1.1-0.4c-0.6-0.3-1.3-0.5-1.8-0.4
				c-0.6,0.1-1,0.7-1.4,1.2c-0.3,0.4-0.7,0.9-0.9,0.9c-0.2,0-0.6-0.5-0.9-0.9c-0.4-0.5-0.8-1.1-1.4-1.2c-0.1,0-0.2,0-0.4,0
				c-0.5,0-1,0.2-1.5,0.4c-0.4,0.2-0.8,0.4-1.1,0.4c0,0-0.1,0-0.1,0c-0.2-0.1-0.3-0.8-0.3-1.2c-0.1-0.7-0.2-1.4-0.6-1.8
				c-0.4-0.4-1.1-0.5-1.8-0.6c-0.4,0-1.1-0.1-1.2-0.3c-0.1-0.2,0.2-0.8,0.3-1.2c0.3-0.6,0.6-1.3,0.4-1.8c-0.2-0.6-0.7-1-1.2-1.4
				c-0.4-0.3-0.9-0.7-0.9-0.9s0.5-0.6,0.9-0.9c0.5-0.4,1.1-0.8,1.2-1.4c0.2-0.6-0.1-1.2-0.4-1.8c-0.2-0.4-0.4-1-0.3-1.2
				C3.1,7.1,3.7,7,4.2,7c0.7-0.1,1.4-0.2,1.8-0.6s0.5-1.1,0.6-1.8c0-0.4,0.1-1.1,0.3-1.2c0,0,0.1,0,0.1,0c0.3,0,0.7,0.2,1.1,0.4
				C8.6,4,9.3,4.3,9.9,4.2c0.6-0.1,1-0.7,1.4-1.2C11.5,2.6,11.9,2,12.1,2s0.6,0.5,0.9,0.9c0.4,0.5,0.8,1.1,1.4,1.2
				c0.5,0.1,1.2-0.1,1.8-0.4c0.4-0.2,0.8-0.4,1.1-0.4c0,0,0.1,0,0.1,0c0.2,0.1,0.3,0.8,0.3,1.2c0.1,0.7,0.2,1.4,0.6,1.8
				c0.4,0.4,1.1,0.5,1.8,0.6c0.4,0,1.1,0.1,1.2,0.3c0.1,0.2-0.2,0.8-0.3,1.2c-0.3,0.6-0.6,1.3-0.4,1.8c0.2,0.6,0.7,1,1.2,1.4
				c0.4,0.3,0.9,0.7,0.9,0.9S22.2,13.2,21.8,13.5z"/>
		</g>
	</g>
	<g>
		<g>
			<path class="st1" d="M9.1,10.1c-0.3,0-0.5,0.2-0.5,0.5v2.5l-2.1-2.8c-0.1-0.2-0.4-0.2-0.6-0.2c-0.2,0.1-0.3,0.3-0.3,0.5v4
				c0,0.3,0.2,0.5,0.5,0.5c0.3,0,0.5-0.2,0.5-0.5v-2.5l2.1,2.8c0.1,0.1,0.2,0.2,0.4,0.2c0.1,0,0.1,0,0.2,0c0.2-0.1,0.3-0.3,0.3-0.5
				v-4C9.6,10.3,9.4,10.1,9.1,10.1z"/>
		</g>
	</g>
	<g>
		<g>
			<path class="st1" d="M13.1,14.1h-1.5v-3h1.5c0.3,0,0.5-0.2,0.5-0.5c0-0.3-0.2-0.5-0.5-0.5h-2c-0.3,0-0.5,0.2-0.5,0.5v4
				c0,0.3,0.2,0.5,0.5,0.5h2c0.3,0,0.5-0.2,0.5-0.5S13.4,14.1,13.1,14.1z"/>
		</g>
	</g>
	<g>
		<g>
			<path class="st1" d="M13.1,12.1h-2c-0.3,0-0.5,0.2-0.5,0.5s0.2,0.5,0.5,0.5h2c0.3,0,0.5-0.2,0.5-0.5
				C13.6,12.3,13.4,12.1,13.1,12.1z"/>
		</g>
	</g>
	<g>
		<g>
			<path class="st1" d="M19.3,10.1c-0.3-0.1-0.5,0.1-0.6,0.4l-0.6,2.4l-0.5-1.4c-0.1-0.4-0.8-0.4-1,0l-0.5,1.4l-0.6-2.4
				c-0.1-0.3-0.3-0.4-0.6-0.4c-0.3,0.1-0.4,0.3-0.4,0.6l1,4c0.1,0.2,0.2,0.4,0.5,0.4c0.3,0,0.4-0.1,0.5-0.3l0.5-1.6l0.5,1.6
				c0.1,0.2,0.3,0.3,0.5,0.3c0,0,0,0,0,0c0.2,0,0.4-0.2,0.5-0.4l1-4C19.7,10.4,19.6,10.2,19.3,10.1z"/>
		</g>
	</g>
</g>
<path class="st0" d="M72.9-56.5"/>
</svg>
