<?xml version="1.0" encoding="utf-8"?>
<!-- Generator: Adobe Illustrator 24.3.0, SVG Export Plug-In . SVG Version: 6.00 Build 0)  -->
<!DOCTYPE svg PUBLIC "-//W3C//DTD SVG 1.1//EN" "http://www.w3.org/Graphics/SVG/1.1/DTD/svg11.dtd" [
	<!ENTITY ns_extend "http://ns.adobe.com/Extensibility/1.0/">
	<!ENTITY ns_ai "http://ns.adobe.com/AdobeIllustrator/10.0/">
	<!ENTITY ns_graphs "http://ns.adobe.com/Graphs/1.0/">
	<!ENTITY ns_vars "http://ns.adobe.com/Variables/1.0/">
	<!ENTITY ns_imrep "http://ns.adobe.com/ImageReplacement/1.0/">
	<!ENTITY ns_sfw "http://ns.adobe.com/SaveForWeb/1.0/">
	<!ENTITY ns_custom "http://ns.adobe.com/GenericCustomNamespace/1.0/">
	<!ENTITY ns_adobe_xpath "http://ns.adobe.com/XPath/1.0/">
]>
<svg version="1.1" id="Layer_1" xmlns:x="&ns_extend;" xmlns:i="&ns_ai;" xmlns:graph="&ns_graphs;"
	 xmlns="http://www.w3.org/2000/svg" xmlns:xlink="http://www.w3.org/1999/xlink" x="0px" y="0px" viewBox="0 0 25 25"
	 style="enable-background:new 0 0 25 25;" xml:space="preserve">
<style type="text/css">
	.st0{fill:none;}
	.st1{fill:none;stroke:#050505;stroke-width:2;stroke-miterlimit:10;}
	.st2{fill:#050505;}
	.st3{fill:#00BDAE;}
</style>
<metadata>
	<sfw  xmlns="&ns_sfw;">
		<slices></slices>
		<sliceSourceBounds  bottomLeftOrigin="true" height="145.4" width="136.7" x="3.3" y="2.6"></sliceSourceBounds>
	</sfw>
</metadata>
<path class="st0" d="M140-123"/>
<path class="st0" d="M72.9-56.5"/>
<path class="st1" d="M12.9,4.4c5,0,9,4.4,8.5,9.5c-0.4,3.9-3.6,7.1-7.5,7.5c-5.1,0.6-9.5-3.4-9.5-8.5"/>
<circle class="st2" cx="4.7" cy="11.1" r="0.9"/>
<circle class="st2" cx="6" cy="8.4" r="0.9"/>
<circle class="st2" cx="8.1" cy="6.4" r="0.9"/>
<circle class="st2" cx="10.8" cy="4.7" r="0.9"/>
<path class="st3" d="M12.6,14.5L12.6,14.5c-0.5,0-0.9-0.4-0.9-0.9V8.2c0-0.5,0.4-0.9,0.9-0.9h0c0.5,0,0.9,0.4,0.9,0.9v5.4
	C13.4,14.1,13,14.5,12.6,14.5z"/>
<path class="st3" d="M11.8,13.2L11.8,13.2c0.1-0.2,0.5-0.3,0.7-0.2l5.2,3.3c0.2,0.1,0.3,0.5,0.2,0.7v0c-0.1,0.2-0.5,0.3-0.7,0.2
	l-5.2-3.3C11.7,13.7,11.6,13.4,11.8,13.2z"/>
</svg>
