<?xml version="1.0" encoding="utf-8"?>
<!-- Generator: Adobe Illustrator 24.3.0, SVG Export Plug-In . SVG Version: 6.00 Build 0)  -->
<!DOCTYPE svg PUBLIC "-//W3C//DTD SVG 1.1//EN" "http://www.w3.org/Graphics/SVG/1.1/DTD/svg11.dtd" [
	<!ENTITY ns_extend "http://ns.adobe.com/Extensibility/1.0/">
	<!ENTITY ns_ai "http://ns.adobe.com/AdobeIllustrator/10.0/">
	<!ENTITY ns_graphs "http://ns.adobe.com/Graphs/1.0/">
	<!ENTITY ns_vars "http://ns.adobe.com/Variables/1.0/">
	<!ENTITY ns_imrep "http://ns.adobe.com/ImageReplacement/1.0/">
	<!ENTITY ns_sfw "http://ns.adobe.com/SaveForWeb/1.0/">
	<!ENTITY ns_custom "http://ns.adobe.com/GenericCustomNamespace/1.0/">
	<!ENTITY ns_adobe_xpath "http://ns.adobe.com/XPath/1.0/">
]>
<svg version="1.1" id="Layer_1" xmlns:x="&ns_extend;" xmlns:i="&ns_ai;" xmlns:graph="&ns_graphs;"
	 xmlns="http://www.w3.org/2000/svg" xmlns:xlink="http://www.w3.org/1999/xlink" x="0px" y="0px" viewBox="0 0 25 25"
	 style="enable-background:new 0 0 25 25;" xml:space="preserve">
<style type="text/css">
	.st0{fill:none;}
	.st1{fill:#00BDAE;}
</style>
<metadata>
	<sfw  xmlns="&ns_sfw;">
		<slices></slices>
		<sliceSourceBounds  bottomLeftOrigin="true" height="147.9" width="137.2" x="2.8" y="0.1"></sliceSourceBounds>
	</sfw>
</metadata>
<path class="st0" d="M140-123"/>
<path class="st0" d="M72.9-56.5"/>
<g>
	<path d="M22.2,8.8l-4.9-1.9c0.9-2.5-0.4-5.3-3-6.2S9,1.2,8.1,3.7c-0.4,1-0.4,2.2,0,3.2L3.2,8.8C3,8.9,2.8,9.1,2.8,9.3v11.4
		c0,0.2,0.1,0.4,0.3,0.5l9.3,3.6c0.1,0,0.1,0,0.2,0c0.1,0,0.1,0,0.2,0l0,0l9.3-3.6c0.2-0.1,0.3-0.3,0.3-0.5V9.3
		C22.5,9.1,22.4,8.9,22.2,8.8L22.2,8.8z M20.5,9.3L18.8,10L16,8.9c0.3-0.3,0.6-0.6,0.8-1L20.5,9.3z M14.9,9.6l2.4,0.9L16,11.1
		l-2.5-1C14,10,14.5,9.8,14.9,9.6z M16.6,12l1.8-0.7v2.2L18,13.3c-0.2-0.1-0.5-0.1-0.7,0.1l-0.8,0.9V12z M12.7,1.5
		c2.1,0,3.8,1.7,3.8,3.8s-1.7,3.8-3.8,3.8S8.9,7.4,8.9,5.3l0,0C8.9,3.2,10.6,1.5,12.7,1.5z M8.9,8.3L8.2,8l0.4-0.2
		C8.7,8,8.8,8.2,8.9,8.3L8.9,8.3z M6.7,8.6l7.8,3.1l-1.8,0.7l-7.8-3L6.7,8.6z M3.9,20.4V10.1l8.3,3.2v10.3L3.9,20.4z M13.2,23.6
		V13.3l2.3-0.9v3.2c0,0.2,0.1,0.4,0.3,0.5c0.1,0,0.1,0,0.2,0c0.1,0,0.3-0.1,0.4-0.2l1.4-1.5l0.7,0.5c0.2,0.2,0.6,0.1,0.7-0.2
		c0.1-0.1,0.1-0.2,0.1-0.3v-3.6l2.1-0.8v10.3L13.2,23.6z"/>
	<path class="st1" d="M11.7,6.9c0.2,0.2,0.5,0.2,0.7,0L15,4.5c0.2-0.2,0.3-0.5,0.1-0.7c-0.2-0.2-0.5-0.3-0.7-0.1c0,0,0,0,0,0l-2.2,2
		l-1-0.9c-0.2-0.2-0.6-0.2-0.7,0.1c-0.2,0.2-0.2,0.6,0.1,0.7L11.7,6.9z"/>
	<path class="st1" d="M6.5,20.3c0.3,0.3,0.7,0.3,0.9,0l3.4-4.7c0.3-0.4,0.3-1.1,0.1-1.5c-0.3-0.5-0.7-0.5-1-0.1c0,0,0,0,0,0l-3,4.1
		l-1.3-1.7c-0.3-0.4-0.7-0.3-1,0.1c-0.3,0.5-0.2,1.1,0.1,1.5L6.5,20.3z"/>
</g>
</svg>
