<?xml version="1.0" encoding="utf-8"?>
<!-- Generator: Adobe Illustrator 24.1.1, SVG Export Plug-In . SVG Version: 6.00 Build 0)  -->
<svg version="1.1" id="Layer_1" xmlns="http://www.w3.org/2000/svg" xmlns:xlink="http://www.w3.org/1999/xlink" x="0px" y="0px"
	 viewBox="0 0 200 170" style="enable-background:new 0 0 200 170;" xml:space="preserve">
<style type="text/css">
	.st0{fill:#2B3B4E;}
	.st1{fill:#FFFFFF;}
	.st2{fill:#F9B54C;}
	.st3{fill:#54C0EB;}
	.st4{fill:#FF7058;}
	.st5{fill:none;stroke:#050505;stroke-miterlimit:10;}
	.st6{fill:#FCFCFC;stroke:#050505;stroke-miterlimit:10;}
	.st7{fill:#CED5E0;}
	.st8{fill:#4CDBC4;}
	.st9{fill:#84DBFF;}
</style>
<rect x="2.4" y="-0.4" class="st0" width="194.7" height="135.3"/>
<path class="st0" d="M179.1,170H20.4c-9.9,0-18-8.1-18-18v-7.8h194.7v7.8C197.1,161.9,189,170,179.1,170z"/>
<rect x="12.1" y="8.8" class="st1" width="175.2" height="116.6"/>
<path class="st1" d="M127.8,150.8H83.2c-2.8,0-5-2.3-5-5v-4.4c0-2.8,2.3-5,5-5h44.7c2.8,0,5,2.3,5,5v4.4
	C132.9,148.5,130.6,150.8,127.8,150.8z"/>
<g>
	<g>
		<path class="st2" d="M43.7,115.5c11,3.6,22.9-2.3,26.5-13.3c0.7-2.1,1.1-4.4,1.1-6.6h-21L43.7,115.5z"/>
		<path class="st3" d="M50.3,74.6c-11.6,0-21,9.4-21,21c0,9,5.8,17.1,14.4,19.9l6.6-19.9V74.6z"/>
		<path class="st0" d="M50.3,74.6v21h21C71.3,84,61.9,74.6,50.3,74.6z"/>
	</g>
	<g>
		<path class="st3" d="M43.7,61.6c11,3.6,22.9-2.3,26.5-13.3c0.7-2.1,1.1-4.4,1.1-6.6h-21L43.7,61.6z"/>
		<path class="st2" d="M50.3,20.7c-11.6,0-21,9.4-21,21c0,9,5.8,17.1,14.4,19.9l6.6-19.9V20.7z"/>
		<path class="st0" d="M50.3,20.7v21h21C71.3,30.1,61.9,20.7,50.3,20.7z"/>
	</g>
	<g>
		<path class="st4" d="M111.5,85.2h7.8v23.2h-7.8V85.2z"/>
		<path class="st2" d="M124.2,77.1h7.8v31.2h-7.8V77.1z"/>
		<path class="st0" d="M136.9,90.2h7.8v18.1h-7.8V90.2z"/>
		<line class="st5" x1="99.9" y1="72" x2="99.9" y2="112.9"/>
		<line class="st5" x1="158.3" y1="112.5" x2="99.9" y2="112.5"/>
	</g>
	<g>
		<line class="st5" x1="99.9" y1="20.7" x2="99.9" y2="57.1"/>
		<line class="st5" x1="158.3" y1="56.8" x2="99.9" y2="56.8"/>
		<polyline class="st5" points="105.7,24.9 111.8,36.7 122.2,36.7 127.1,42.8 136.6,48.5 136.6,52.8 142.7,55 		"/>
		<circle class="st6" cx="111.5" cy="35.9" r="2"/>
		<circle class="st6" cx="127.1" cy="43.2" r="2"/>
		<circle class="st6" cx="122.2" cy="36.9" r="2"/>
		<circle class="st6" cx="136.2" cy="47.9" r="2"/>
	</g>
</g>
<rect x="218" y="-28.6" class="st0" width="194.7" height="135.3"/>
<path class="st0" d="M394.7,141.8H236c-9.9,0-18-8.1-18-18V116h194.7v7.8C412.7,133.7,404.6,141.8,394.7,141.8z"/>
<rect x="227.8" y="-19.4" class="st1" width="175.2" height="116.6"/>
<path class="st1" d="M343.4,122.6h-44.6c-2.8,0-5-2.3-5-5v-4.4c0-2.8,2.3-5,5-5h44.6c2.8,0,5,2.3,5,5v4.4
	C348.5,120.3,346.2,122.6,343.4,122.6z"/>
<rect x="232" y="-13.6" class="st7" width="71.3" height="52.7"/>
<rect x="232" y="47.9" class="st3" width="17" height="17"/>
<rect x="232" y="72.5" class="st2" width="17" height="17"/>
<rect x="252.2" y="48.1" class="st7" width="50.9" height="2.1"/>
<rect x="252.2" y="52.3" class="st7" width="35" height="2.1"/>
<rect x="252.2" y="56.4" class="st7" width="19.5" height="2.1"/>
<rect x="252.3" y="72.5" class="st7" width="50.9" height="2.1"/>
<rect x="252.3" y="76.7" class="st7" width="35" height="2.1"/>
<rect x="252.2" y="80.8" class="st7" width="19.5" height="2.1"/>
<rect x="312.9" y="10.7" class="st8" width="17" height="17"/>
<rect x="333.1" y="11" class="st7" width="50.9" height="2.1"/>
<rect x="333.1" y="15.1" class="st7" width="35" height="2.1"/>
<rect x="312.9" y="33.7" class="st9" width="17" height="17"/>
<rect x="333.1" y="34" class="st7" width="50.9" height="2.1"/>
<rect x="333.1" y="38.1" class="st7" width="35" height="2.1"/>
<rect x="312.9" y="56.6" class="st4" width="17" height="17"/>
<rect x="333.1" y="56.9" class="st7" width="50.9" height="2.1"/>
<rect x="333.1" y="61" class="st7" width="35" height="2.1"/>
<rect x="312.9" y="78.5" class="st7" width="17" height="17"/>
<rect x="333.1" y="80.2" class="st7" width="50.9" height="2.1"/>
<rect x="333.1" y="84.3" class="st7" width="35" height="2.1"/>
<rect x="312.9" y="-13.6" class="st0" width="17" height="17"/>
<rect x="333.1" y="-13.4" class="st7" width="50.9" height="2.1"/>
<rect x="333.1" y="-9.2" class="st7" width="35" height="2.1"/>
<circle class="st4" cx="267.6" cy="12" r="12.2"/>
<polygon class="st1" points="271.9,12 265.3,16.7 265.3,7.4 "/>
</svg>
